<?xml version="1.0" encoding="UTF-8" standalone="no"?>
<!-- Created with Inkscape (http://www.inkscape.org/) -->

<svg
   xmlns:dc="http://purl.org/dc/elements/1.1/"
   xmlns:cc="http://creativecommons.org/ns#"
   xmlns:rdf="http://www.w3.org/1999/02/22-rdf-syntax-ns#"
   xmlns:svg="http://www.w3.org/2000/svg"
   xmlns="http://www.w3.org/2000/svg"
   xmlns:sodipodi="http://sodipodi.sourceforge.net/DTD/sodipodi-0.dtd"
   xmlns:inkscape="http://www.inkscape.org/namespaces/inkscape"
   version="1.1"
   id="svg2"
   xml:space="preserve"
   width="722.56396"
   height="283.26401"
   viewBox="0 0 722.56396 283.26401"
   sodipodi:docname="bdmi_neutral_freq.svg"
   inkscape:version="0.92.4 (5da689c313, 2019-01-14)"><metadata
     id="metadata8"><rdf:RDF><cc:Work
         rdf:about=""><dc:format>image/svg+xml</dc:format><dc:type
           rdf:resource="http://purl.org/dc/dcmitype/StillImage" /><dc:title></dc:title></cc:Work></rdf:RDF></metadata><defs
     id="defs6"><clipPath
       clipPathUnits="userSpaceOnUse"
       id="clipPath20"><path
         d="m 54.828,1.992 h 486.719 v 155.52 H 54.828 Z"
         id="path18"
         inkscape:connector-curvature="0" /></clipPath><clipPath
       clipPathUnits="userSpaceOnUse"
       id="clipPath30"><path
         d="M 0,0 H 542 V 213 H 0 Z"
         id="path28"
         inkscape:connector-curvature="0" /></clipPath><clipPath
       clipPathUnits="userSpaceOnUse"
       id="clipPath118"><path
         d="m 54.828,1.992 h 486.719 v 155.52 H 54.828 Z"
         id="path116"
         inkscape:connector-curvature="0" /></clipPath><clipPath
       clipPathUnits="userSpaceOnUse"
       id="clipPath128"><path
         d="M 0,0 H 542 V 213 H 0 Z"
         id="path126"
         inkscape:connector-curvature="0" /></clipPath></defs><sodipodi:namedview
     pagecolor="#ffffff"
     bordercolor="#666666"
     borderopacity="1"
     objecttolerance="10"
     gridtolerance="10"
     guidetolerance="10"
     inkscape:pageopacity="0"
     inkscape:pageshadow="2"
     inkscape:window-width="1920"
     inkscape:window-height="1043"
     id="namedview4"
     showgrid="false"
     inkscape:zoom="1.5383716"
     inkscape:cx="391.09384"
     inkscape:cy="94.726692"
     inkscape:window-x="0"
     inkscape:window-y="0"
     inkscape:window-maximized="1"
     inkscape:current-layer="g10" /><g
     id="g10"
     inkscape:groupmode="layer"
     inkscape:label="bdmi_neutral_freq"
     transform="matrix(1.3333333,0,0,1.3333333,0,9.7482671e-6)"
     style="display:inline"><g
       id="g12" /><g
       id="g38"><g
         id="g40"
         transform="scale(1,-1)"><path
           d="M 70.59,-157.512 H 523.52"
           style="fill:none;stroke:#000000;stroke-width:0.75;stroke-linecap:round;stroke-linejoin:round;stroke-miterlimit:10;stroke-dasharray:none;stroke-opacity:1"
           id="path42"
           inkscape:connector-curvature="0" /></g><g
         id="g44"
         transform="scale(1,-1)"><path
           d="m 70.59,-157.512 v -7.199"
           style="fill:none;stroke:#000000;stroke-width:0.75;stroke-linecap:round;stroke-linejoin:round;stroke-miterlimit:10;stroke-dasharray:none;stroke-opacity:1"
           id="path46"
           inkscape:connector-curvature="0" /></g><g
         id="g48"
         transform="scale(1,-1)"><path
           d="m 183.816,-157.512 v -7.199"
           style="fill:none;stroke:#000000;stroke-width:0.75;stroke-linecap:round;stroke-linejoin:round;stroke-miterlimit:10;stroke-dasharray:none;stroke-opacity:1"
           id="path50"
           inkscape:connector-curvature="0" /></g><g
         id="g52"
         transform="scale(1,-1)"><path
           d="m 297.059,-157.512 v -7.199"
           style="fill:none;stroke:#000000;stroke-width:0.75;stroke-linecap:round;stroke-linejoin:round;stroke-miterlimit:10;stroke-dasharray:none;stroke-opacity:1"
           id="path54"
           inkscape:connector-curvature="0" /></g><g
         id="g56"
         transform="scale(1,-1)"><path
           d="m 410.289,-157.512 v -7.199"
           style="fill:none;stroke:#000000;stroke-width:0.75;stroke-linecap:round;stroke-linejoin:round;stroke-miterlimit:10;stroke-dasharray:none;stroke-opacity:1"
           id="path58"
           inkscape:connector-curvature="0" /></g><g
         id="g60"
         transform="scale(1,-1)"><path
           d="m 523.52,-157.512 v -7.199"
           style="fill:none;stroke:#000000;stroke-width:0.75;stroke-linecap:round;stroke-linejoin:round;stroke-miterlimit:10;stroke-dasharray:none;stroke-opacity:1"
           id="path62"
           inkscape:connector-curvature="0" /></g><text
         transform="translate(67.257998,183.43199)"
         style="font-variant:normal;font-weight:normal;font-size:12px;font-family:TeXGyreHeros;-inkscape-font-specification:TeXGyreHeros-Regular;writing-mode:lr-tb;fill:#000000;fill-opacity:1;fill-rule:nonzero;stroke:none"
         id="text66"><tspan
           x="0 109.884 116.556 219.78999 226.46199 233.134 333.022 339.694 346.366 446.26001 452.93201 459.604"
           y="0"
           sodipodi:role="line"
           id="tspan64">050100150200</tspan></text>
<g
         id="g68"
         transform="scale(1,-1)"><path
           d="m 54.828,-151.754 v 144"
           style="fill:none;stroke:#000000;stroke-width:0.75;stroke-linecap:round;stroke-linejoin:round;stroke-miterlimit:10;stroke-dasharray:none;stroke-opacity:1"
           id="path70"
           inkscape:connector-curvature="0" /></g><g
         id="g72"
         transform="scale(1,-1)"><path
           d="M 54.828,-151.754 H 47.629"
           style="fill:none;stroke:#000000;stroke-width:0.75;stroke-linecap:round;stroke-linejoin:round;stroke-miterlimit:10;stroke-dasharray:none;stroke-opacity:1"
           id="path74"
           inkscape:connector-curvature="0" /></g><g
         id="g76"
         transform="scale(1,-1)"><path
           d="M 54.828,-122.953 H 47.629"
           style="fill:none;stroke:#000000;stroke-width:0.75;stroke-linecap:round;stroke-linejoin:round;stroke-miterlimit:10;stroke-dasharray:none;stroke-opacity:1"
           id="path78"
           inkscape:connector-curvature="0" /></g><g
         id="g80"
         transform="scale(1,-1)"><path
           d="M 54.828,-94.152 H 47.629"
           style="fill:none;stroke:#000000;stroke-width:0.75;stroke-linecap:round;stroke-linejoin:round;stroke-miterlimit:10;stroke-dasharray:none;stroke-opacity:1"
           id="path82"
           inkscape:connector-curvature="0" /></g><g
         id="g84"
         transform="scale(1,-1)"><path
           d="M 54.828,-65.352 H 47.629"
           style="fill:none;stroke:#000000;stroke-width:0.75;stroke-linecap:round;stroke-linejoin:round;stroke-miterlimit:10;stroke-dasharray:none;stroke-opacity:1"
           id="path86"
           inkscape:connector-curvature="0" /></g><g
         id="g88"
         transform="scale(1,-1)"><path
           d="M 54.828,-36.551 H 47.629"
           style="fill:none;stroke:#000000;stroke-width:0.75;stroke-linecap:round;stroke-linejoin:round;stroke-miterlimit:10;stroke-dasharray:none;stroke-opacity:1"
           id="path90"
           inkscape:connector-curvature="0" /></g><g
         id="g92"
         transform="scale(1,-1)"><path
           d="M 54.828,-7.754 H 47.629"
           style="fill:none;stroke:#000000;stroke-width:0.75;stroke-linecap:round;stroke-linejoin:round;stroke-miterlimit:10;stroke-dasharray:none;stroke-opacity:1"
           id="path94"
           inkscape:connector-curvature="0" /></g><text
         transform="rotate(-90,98.819997,61.271997)"
         style="font-variant:normal;font-weight:normal;font-size:12px;font-family:TeXGyreHeros;-inkscape-font-specification:TeXGyreHeros-Regular;writing-mode:lr-tb;fill:#000000;fill-opacity:1;fill-rule:nonzero;stroke:none"
         id="text98"><tspan
           x="0 6.6719999 10.008 28.799999 35.472 38.807999 57.599998 64.272003 67.608002 86.400002 93.071999 96.407997 115.2 121.872 125.208 144 150.672 154.008"
           y="0"
           sodipodi:role="line"
           id="tspan96">0.00.20.40.60.81.0</tspan></text>
<g
         id="g100"
         transform="scale(1,-1)"><path
           d="m 54.828,-1.992 h 486.719 v -155.52 H 54.828 Z"
           style="fill:none;stroke:#000000;stroke-width:0.75;stroke-linecap:round;stroke-linejoin:round;stroke-miterlimit:10;stroke-dasharray:none;stroke-opacity:1"
           id="path102"
           inkscape:connector-curvature="0" /></g><text
         transform="translate(265.56799,212.23199)"
         style="font-variant:normal;font-weight:normal;font-size:12px;font-family:TeXGyreHeros;-inkscape-font-specification:TeXGyreHeros-Regular;writing-mode:lr-tb;fill:#000000;fill-opacity:1;fill-rule:nonzero;stroke:none"
         id="text106"><tspan
           x="0 9.3360004 16.007999 22.68 29.351999 33.228001 39.900002 43.236 45.900002 52.571999 59.243999"
           y="0"
           sodipodi:role="line"
           id="tspan104">Générations</tspan></text>
<text
         transform="rotate(-90,70.049998,61.301998)"
         style="font-variant:normal;font-weight:normal;font-size:12px;font-family:TeXGyreHeros;-inkscape-font-specification:TeXGyreHeros-Regular;writing-mode:lr-tb;fill:#000000;fill-opacity:1;fill-rule:nonzero;stroke:none"
         id="text110"><tspan
           x="0 8.0039997 12 18.672001 25.344 32.015999 36.492001 39.827999 42.492001 49.164001 55.835999 59.172001 65.844002 72.515999 76.512001 83.183998 89.856003 93.192001 96.528"
           y="0"
           sodipodi:role="line"
           id="tspan108">Proportion parent 1</tspan></text>
</g></g><g
     inkscape:groupmode="layer"
     id="layer3"
     inkscape:label="Layer 3"
     style="display:none"><g
       id="g144"
       transform="matrix(1.3333333,0,0,-1.3333333,0,9.7482671e-6)"><path
         d="m 72.859,-108.551 2.258,-13.402 2.27,-8.207 2.261,-5.652 2.27,-4.071 2.262,-3.019 2.258,-2.239 2.269,-1.671 2.262,-1.25 2.269,-0.942 2.258,-0.687 2.274,-0.532 2.257,-0.379 2.27,-0.3 2.262,-0.211 2.269,-0.16 2.262,-0.118 2.269,-0.089 2.258,-0.071 2.27,-0.051 2.261,-0.039 2.258,-0.031 2.274,-0.019 2.258,-0.012 2.269,-0.02 h 2.262 l 2.269,-0.007 2.258,-0.012 h 6.801 l 2.262,-0.012 H 523.52"
         style="fill:none;stroke:#008b8b;stroke-width:2.25;stroke-linecap:round;stroke-linejoin:round;stroke-miterlimit:10;stroke-dasharray:6.75, 11.25;stroke-dashoffset:0;stroke-opacity:1"
         id="path146"
         inkscape:connector-curvature="0" /></g><g
       id="g148"
       transform="matrix(1.3333333,0,0,-1.3333333,0,9.7482671e-6)"><path
         d="m 72.859,-108.551 2.258,5.739 2.27,3.109 2.261,1.949 2.27,1.363 2.262,0.969 2.258,0.719 2.269,0.531 2.262,0.391 2.269,0.301 2.258,0.218 2.274,0.168 2.257,0.121 2.27,0.09 2.262,0.071 2.269,0.05 2.262,0.039 2.269,0.032 2.258,0.019 2.27,0.02 2.261,0.011 2.258,0.008 h 2.274 l 2.258,0.012 h 4.531 l 2.269,0.008 H 523.52"
         style="fill:none;stroke:#008b8b;stroke-width:2.25;stroke-linecap:round;stroke-linejoin:round;stroke-miterlimit:10;stroke-dasharray:none;stroke-opacity:1"
         id="path150"
         inkscape:connector-curvature="0" /></g></g><g
     inkscape:groupmode="layer"
     id="layer2"
     inkscape:label="Layer 2"
     transform="matrix(1.3333333,0,0,1.3333333,0,9.7482671e-6)"
     style="display:none"><g
       id="g14"><g
         id="g16"
         clip-path="url(#clipPath20)"><g
           id="g22"><g
             id="g24"><g
               id="g26"
               clip-path="url(#clipPath30)"><g
                 id="g32"><g
                   id="g34"
                   transform="scale(1,-1)"><path
                     d="m 72.859,-50.953 2.258,-5.738 2.27,-3.11 2.261,-1.953 2.27,-1.359 2.262,-0.969 2.258,-0.719 2.269,-0.531 2.262,-0.391 2.269,-0.3 2.258,-0.219 2.274,-0.168 2.257,-0.121 2.27,-0.09 2.262,-0.07 2.269,-0.051 2.262,-0.039 2.269,-0.031 2.258,-0.02 2.27,-0.02 2.261,-0.011 2.258,-0.008 h 2.274 l 2.258,-0.012 h 4.531 l 2.269,-0.008 H 523.52"
                     style="fill:none;stroke:#708090;stroke-width:2.25;stroke-linecap:round;stroke-linejoin:round;stroke-miterlimit:10;stroke-dasharray:6.75, 11.25;stroke-dashoffset:0;stroke-opacity:1"
                     id="path36"
                     inkscape:connector-curvature="0" /></g></g></g></g></g></g></g><path
       transform="scale(1,-1)"
       d="m 72.859,-50.953 2.258,13.402 2.27,8.207 2.261,5.653 2.27,4.07 2.262,3.019 2.258,2.239 2.269,1.672 2.262,1.25 2.269,0.937 2.258,0.692 2.274,0.531 2.257,0.379 2.27,0.3 2.262,0.211 2.269,0.161 2.262,0.117 2.269,0.09 2.258,0.07 2.27,0.051 2.261,0.039 2.258,0.031 2.274,0.02 2.258,0.011 2.269,0.02 h 2.262 l 2.269,0.008 2.258,0.011 h 6.801 l 2.262,0.008 H 523.52"
       style="fill:none;stroke:#708090;stroke-width:2.25;stroke-linecap:round;stroke-linejoin:round;stroke-miterlimit:10;stroke-dasharray:none;stroke-opacity:1"
       id="path134"
       inkscape:connector-curvature="0" /></g><g
     inkscape:groupmode="layer"
     id="layer1"
     inkscape:label="Layer 1"
     transform="matrix(1.3333333,0,0,1.3333333,0,9.7482671e-6)"
     style="display:inline"><g
       transform="scale(1,-1)"
       id="g136"><path
         inkscape:connector-curvature="0"
         id="path138"
         style="fill:none;stroke:#000000;stroke-width:2.25;stroke-linecap:round;stroke-linejoin:round;stroke-miterlimit:10;stroke-dasharray:6.75, 11.25;stroke-dashoffset:0;stroke-opacity:1"
         d="m 72.859,-79.754 2.258,-12 2.27,-7.488 2.261,-5.539 2.27,-4.449 2.262,-3.723 2.258,-3.16 2.269,-2.731 2.262,-2.367 2.269,-2.07 2.258,-1.832 2.274,-1.617 2.257,-1.454 2.27,-1.296 2.262,-1.172 2.269,-1.059 2.262,-0.973 2.269,-0.878 2.258,-0.801 2.27,-0.739 2.261,-0.679 2.258,-0.629 2.274,-0.594 2.258,-0.539 2.269,-0.508 2.262,-0.472 2.269,-0.438 2.258,-0.41 2.274,-0.391 2.257,-0.371 2.27,-0.34 2.262,-0.328 2.269,-0.301 2.262,-0.3 2.258,-0.27 2.269,-0.262 2.262,-0.25 2.269,-0.238 2.258,-0.23 2.274,-0.211 2.258,-0.207 2.269,-0.192 2.262,-0.191 2.269,-0.18 2.258,-0.168 2.274,-0.172 2.257,-0.16 2.27,-0.148 2.262,-0.153 2.257,-0.136 2.274,-0.133 2.258,-0.141 2.269,-0.117 2.262,-0.121 2.269,-0.121 2.258,-0.109 2.274,-0.11 2.258,-0.109 2.269,-0.102 2.262,-0.097 2.269,-0.102 2.258,-0.09 2.274,-0.09 2.257,-0.09 2.262,-0.082 2.27,-0.089 2.257,-0.079 2.274,-0.082 2.258,-0.07 2.269,-0.066 2.262,-0.082 2.269,-0.071 2.258,-0.058 2.274,-0.071 2.258,-0.058 2.269,-0.07 2.262,-0.063 2.269,-0.059 2.258,-0.058 2.262,-0.051 2.269,-0.062 2.262,-0.047 2.27,-0.051 2.257,-0.063 2.274,-0.046 2.258,-0.051 2.269,-0.039 2.262,-0.051 2.269,-0.051 2.258,-0.039 2.274,-0.051 2.258,-0.039 2.269,-0.043 2.262,-0.039 2.258,-0.039 2.269,-0.039 2.262,-0.043 2.269,-0.039 2.262,-0.039 2.27,-0.031 2.257,-0.039 2.274,-0.032 2.258,-0.039 2.269,-0.031 2.262,-0.027 2.269,-0.039 2.258,-0.032 2.262,-0.031 2.27,-0.027 2.261,-0.031 2.27,-0.032 2.258,-0.031 2.269,-0.027 2.262,-0.031 2.269,-0.02 2.262,-0.031 2.27,-0.028 2.257,-0.019 2.274,-0.031 2.258,-0.032 2.269,-0.019 2.262,-0.031 2.258,-0.02 2.269,-0.019 2.262,-0.032 2.27,-0.019 2.261,-0.02 2.27,-0.019 2.258,-0.032 2.269,-0.019 2.262,-0.02 2.269,-0.019 2.262,-0.02 2.27,-0.019 2.257,-0.02 2.274,-0.019 2.258,-0.024 2.261,-0.019 2.27,-0.02 2.258,-0.019 2.269,-0.02 2.262,-0.019 2.27,-0.012 2.261,-0.02 2.27,-0.019 2.258,-0.02 2.269,-0.011 2.262,-0.02 2.269,-0.019 2.262,-0.008 2.27,-0.024 2.257,-0.008 2.262,-0.019 2.27,-0.02 2.261,-0.011 2.27,-0.02 2.258,-0.012 2.269,-0.007 2.262,-0.02 2.27,-0.012 2.261,-0.019 2.27,-0.012 2.258,-0.019 2.269,-0.008 2.262,-0.012 2.269,-0.019 2.262,-0.008 2.258,-0.012 2.269,-0.02 2.262,-0.011 2.27,-0.008 2.261,-0.012 2.27,-0.019 2.258,-0.008 2.269,-0.012 2.262,-0.012 2.27,-0.007 2.261,-0.012 2.27,-0.02 2.258,-0.007 2.261,-0.012 2.27,-0.012 2.262,-0.008 2.269,-0.011 2.258,-0.008 2.269,-0.012 2.262,-0.008 2.27,-0.011 2.261,-0.008 2.27,-0.012 2.258,-0.012 2.269,-0.008 2.262,-0.011 2.27,-0.008 2.261,-0.012 2.258,-0.008 2.27,-0.011 2.261,-0.008 2.27,-0.012 2.262,-0.012" /></g><g
       transform="scale(1,-1)"
       id="g140"><path
         inkscape:connector-curvature="0"
         id="path142"
         style="fill:none;stroke:#000000;stroke-width:2.25;stroke-linecap:round;stroke-linejoin:round;stroke-miterlimit:10;stroke-dasharray:none;stroke-opacity:1"
         d="m 72.859,-79.754 2.258,12 2.27,7.492 2.261,5.539 2.27,4.45 2.262,3.722 2.258,3.16 2.269,2.731 2.262,2.367 2.269,2.07 2.258,1.832 2.274,1.618 2.257,1.453 2.27,1.297 2.262,1.171 2.269,1.059 2.262,0.973 2.269,0.879 2.258,0.8 2.27,0.739 2.261,0.679 2.258,0.629 2.274,0.59 2.258,0.543 2.269,0.508 2.262,0.473 2.269,0.437 2.258,0.41 2.274,0.391 2.257,0.371 2.27,0.34 2.262,0.328 2.269,0.301 2.262,0.3 2.258,0.27 2.269,0.262 2.262,0.25 2.269,0.238 2.258,0.23 2.274,0.211 2.258,0.207 2.269,0.192 2.262,0.191 2.269,0.18 2.258,0.168 2.274,0.172 2.257,0.16 2.27,0.148 2.262,0.153 2.257,0.136 2.274,0.133 2.258,0.141 2.269,0.117 2.262,0.121 2.269,0.121 2.258,0.11 2.274,0.109 2.258,0.109 2.269,0.102 2.262,0.098 2.269,0.101 2.258,0.09 2.274,0.09 2.257,0.09 2.262,0.082 2.27,0.09 2.257,0.078 2.274,0.082 2.258,0.066 2.269,0.07 2.262,0.082 2.269,0.071 2.258,0.058 2.274,0.071 2.258,0.058 2.269,0.071 2.262,0.062 2.269,0.059 2.258,0.058 2.262,0.051 2.269,0.063 2.262,0.046 2.27,0.051 2.257,0.063 2.274,0.047 2.258,0.05 2.269,0.039 2.262,0.051 2.269,0.051 2.258,0.039 2.274,0.051 2.258,0.039 2.269,0.043 2.262,0.039 2.258,0.039 2.269,0.039 2.262,0.039 2.269,0.043 2.262,0.039 2.27,0.031 2.257,0.039 2.274,0.032 2.258,0.039 2.269,0.027 2.262,0.031 2.269,0.039 2.258,0.032 2.262,0.031 2.27,0.027 2.261,0.032 2.27,0.031 2.258,0.027 2.269,0.031 2.262,0.032 2.269,0.019 2.262,0.031 2.27,0.028 2.257,0.019 2.274,0.032 2.258,0.031 2.269,0.019 2.262,0.032 2.258,0.019 2.269,0.02 2.262,0.031 2.27,0.019 2.261,0.02 2.27,0.019 2.258,0.032 2.269,0.019 2.262,0.02 2.269,0.019 2.262,0.02 2.27,0.019 2.257,0.02 2.274,0.019 2.258,0.024 2.261,0.019 2.27,0.02 2.258,0.019 2.269,0.02 2.262,0.02 2.27,0.011 2.261,0.02 2.27,0.019 2.258,0.02 2.269,0.012 2.262,0.019 2.269,0.02 2.262,0.007 2.27,0.024 2.257,0.008 2.262,0.019 2.27,0.02 2.261,0.011 2.27,0.02 2.258,0.012 2.269,0.008 2.262,0.019 2.27,0.012 2.261,0.019 2.27,0.008 2.258,0.024 2.269,0.007 2.262,0.012 2.269,0.02 2.262,0.007 2.258,0.012 2.269,0.02 2.262,0.011 2.27,0.008 2.261,0.012 2.27,0.019 2.258,0.008 2.269,0.012 2.262,0.012 2.27,0.008 2.261,0.011 2.27,0.02 2.258,0.008 2.261,0.011 2.27,0.008 2.262,0.012 2.269,0.012 2.258,0.007 2.269,0.012 2.262,0.008 2.27,0.012 2.261,0.007 2.27,0.012 2.258,0.012 2.269,0.008 2.262,0.011 2.27,0.008 2.261,0.012 2.258,0.008 2.27,0.011 2.261,0.008 2.27,0.012 2.262,0.012" /></g></g></svg>