<?xml version="1.0" encoding="UTF-8" standalone="no"?>
<!-- Created with Inkscape (http://www.inkscape.org/) -->

<svg
   xmlns:dc="http://purl.org/dc/elements/1.1/"
   xmlns:cc="http://creativecommons.org/ns#"
   xmlns:rdf="http://www.w3.org/1999/02/22-rdf-syntax-ns#"
   xmlns:svg="http://www.w3.org/2000/svg"
   xmlns="http://www.w3.org/2000/svg"
   xmlns:sodipodi="http://sodipodi.sourceforge.net/DTD/sodipodi-0.dtd"
   xmlns:inkscape="http://www.inkscape.org/namespaces/inkscape"
   width="219.4118mm"
   height="140.30362mm"
   viewBox="0 0 219.4118 140.30362"
   version="1.1"
   id="svg8"
   inkscape:version="0.92.4 (5da689c313, 2019-01-14)"
   sodipodi:docname="mimulus_bdmi.svg">
  <defs
     id="defs2">
    <marker
       inkscape:isstock="true"
       style="overflow:visible"
       id="marker2178"
       refX="0"
       refY="0"
       orient="auto"
       inkscape:stockid="Arrow1Mend">
      <path
         transform="matrix(-0.4,0,0,-0.4,-4,0)"
         style="fill:#000000;fill-opacity:1;fill-rule:evenodd;stroke:#000000;stroke-width:1.00000003pt;stroke-opacity:1"
         d="M 0,0 5,-5 -12.5,0 5,5 Z"
         id="path2176"
         inkscape:connector-curvature="0" />
    </marker>
    <marker
       inkscape:stockid="Arrow1Mend"
       orient="auto"
       refY="0"
       refX="0"
       id="Arrow1Mend"
       style="overflow:visible"
       inkscape:isstock="true"
       inkscape:collect="always">
      <path
         id="path1364"
         d="M 0,0 5,-5 -12.5,0 5,5 Z"
         style="fill:#000000;fill-opacity:1;fill-rule:evenodd;stroke:#000000;stroke-width:1.00000003pt;stroke-opacity:1"
         transform="matrix(-0.4,0,0,-0.4,-4,0)"
         inkscape:connector-curvature="0" />
    </marker>
    <marker
       inkscape:stockid="Arrow1Mend"
       orient="auto"
       refY="0"
       refX="0"
       id="Arrow1Mend-3"
       style="overflow:visible"
       inkscape:isstock="true">
      <path
         inkscape:connector-curvature="0"
         id="path1364-5"
         d="M 0,0 5,-5 -12.5,0 5,5 Z"
         style="fill:#000000;fill-opacity:1;fill-rule:evenodd;stroke:#000000;stroke-width:1.00000003pt;stroke-opacity:1"
         transform="matrix(-0.4,0,0,-0.4,-4,0)" />
    </marker>
    <marker
       inkscape:stockid="Arrow1Lstart"
       orient="auto"
       refY="0"
       refX="0"
       id="Arrow1Lstart"
       style="overflow:visible"
       inkscape:isstock="true">
      <path
         inkscape:connector-curvature="0"
         id="path1227"
         d="M 0,0 5,-5 -12.5,0 5,5 Z"
         style="fill:#000000;fill-opacity:1;fill-rule:evenodd;stroke:#000000;stroke-width:1.00000003pt;stroke-opacity:1"
         transform="matrix(0.8,0,0,0.8,10,0)" />
    </marker>
  </defs>
  <sodipodi:namedview
     id="base"
     pagecolor="#ffffff"
     bordercolor="#666666"
     borderopacity="1.0"
     inkscape:pageopacity="0.0"
     inkscape:pageshadow="2"
     inkscape:zoom="1.4"
     inkscape:cx="286.92721"
     inkscape:cy="245.2876"
     inkscape:document-units="mm"
     inkscape:current-layer="layer1"
     showgrid="false"
     inkscape:window-width="1920"
     inkscape:window-height="1016"
     inkscape:window-x="0"
     inkscape:window-y="1107"
     inkscape:window-maximized="1"
     fit-margin-top="0"
     fit-margin-left="0"
     fit-margin-right="0"
     fit-margin-bottom="0" />
  <metadata
     id="metadata5">
    <rdf:RDF>
      <cc:Work
         rdf:about="">
        <dc:format>image/svg+xml</dc:format>
        <dc:type
           rdf:resource="http://purl.org/dc/dcmitype/StillImage" />
        <dc:title />
      </cc:Work>
    </rdf:RDF>
  </metadata>
  <g
     inkscape:label="Layer 1"
     inkscape:groupmode="layer"
     id="layer1"
     transform="translate(-11.095293,-13.672394)">
    <g
       id="g2115">
      <g
         id="layer1-0"
         inkscape:label="Layer 1"
         transform="matrix(0.07086845,0,0,0.07086845,57.363576,4.1050665)">
        <path
           id="path2985"
           sodipodi:nodetypes="cccccccc"
           style="color:#000000;fill:#009e73"
           inkscape:connector-curvature="0"
           d="m 148.82,377.24 5.11,-55.86 c 0,0 -96.743,-5.72 -126.59,-86.31 100.28,-46.69 132.07,73.2 132.07,73.2 0,0 22.52,-129.75 120.17,-126.76 6.4,127.92 -114.13,139.44 -114.13,139.44 l 4.69,56.72 z" />
        <path
           id="path2983"
           sodipodi:nodetypes="ccsc"
           style="color:#000000;fill:#6d3c32"
           inkscape:connector-curvature="0"
           d="m 66.946,369.13 190.16,6.81 c 0,0 4.69,97.92 -95.93,93.82 C 52.436,465.33 66.942,369.13 66.942,369.13 Z" />
        <path
           id="path2989"
           style="color:#000000;fill:#008000"
           d="m 159.8,158.57 -5.02,-5.71 -48.52,-30.45 53.71,37.49 63.2,-68.822 -59.33,61.092 z"
           sodipodi:nodetypes="ccccccc"
           inkscape:connector-curvature="0"
           transform="translate(0,160)" />
        <path
           id="path3010"
           style="color:#000000;fill:#4d1a06"
           d="m 88.692,209.56 c 0,0 -10.665,70.36 72.068,80.16 72.91,5.12 75.04,-73.76 75.04,-73.76 l 21.32,1.28 c 0,0 4.27,98.93 -97.65,92.53 C 52.87,305.93 66.519,208.71 66.519,208.71 Z"
           sodipodi:nodetypes="ccccccc"
           inkscape:connector-curvature="0"
           transform="translate(0,160)" />
      </g>
      <rect
         y="25.72143"
         x="79.245415"
         height="2.9399648"
         width="30.335091"
         id="rect1232"
         style="opacity:1;fill:#56b4e9;fill-opacity:1;fill-rule:nonzero;stroke:none;stroke-width:0.26499999;stroke-linecap:round;stroke-miterlimit:4;stroke-dasharray:none;stroke-dashoffset:0;stroke-opacity:1" />
      <rect
         y="25.72143"
         x="114.72544"
         height="2.9399648"
         width="30.335091"
         id="rect1232-1"
         style="opacity:1;fill:#e69f00;fill-opacity:1;fill-rule:nonzero;stroke:none;stroke-width:0.26499999;stroke-linecap:round;stroke-miterlimit:4;stroke-dasharray:none;stroke-dashoffset:0;stroke-opacity:1" />
      <text
         id="text1251"
         y="32.402336"
         x="89.417572"
         style="font-style:normal;font-variant:normal;font-weight:normal;font-stretch:normal;font-size:2.82222223px;line-height:1.25;font-family:sans-serif;-inkscape-font-specification:'sans-serif, Normal';font-variant-ligatures:normal;font-variant-caps:normal;font-variant-numeric:normal;font-feature-settings:normal;text-align:start;letter-spacing:0px;word-spacing:0px;writing-mode:lr-tb;text-anchor:start;fill:#000000;fill-opacity:1;stroke:none;stroke-width:0.26458332"
         xml:space="preserve"><tspan
           style="stroke-width:0.26458332"
           y="32.402336"
           x="89.417572"
           id="tspan1249"
           sodipodi:role="line">Chr. 13</tspan></text>
      <text
         id="text1251-2"
         y="32.402336"
         x="124.86384"
         style="font-style:normal;font-variant:normal;font-weight:normal;font-stretch:normal;font-size:2.82222223px;line-height:1.25;font-family:sans-serif;-inkscape-font-specification:'sans-serif, Normal';font-variant-ligatures:normal;font-variant-caps:normal;font-variant-numeric:normal;font-feature-settings:normal;text-align:start;letter-spacing:0px;word-spacing:0px;writing-mode:lr-tb;text-anchor:start;fill:#000000;fill-opacity:1;stroke:none;stroke-width:0.26458332"
         xml:space="preserve"><tspan
           id="tspan1271"
           style="stroke-width:0.26458332"
           y="32.402336"
           x="124.86384"
           sodipodi:role="line">Chr. 14</tspan></text>
      <rect
         y="25.72143"
         x="102.98942"
         height="2.9399648"
         width="1.4699824"
         id="rect1275"
         style="opacity:1;fill:#008000;fill-opacity:1;fill-rule:nonzero;stroke:none;stroke-width:0.25917509;stroke-linecap:round;stroke-miterlimit:4;stroke-dasharray:none;stroke-dashoffset:0;stroke-opacity:1" />
      <text
         id="text1294"
         y="24.195683"
         x="98.452721"
         style="font-style:normal;font-variant:normal;font-weight:normal;font-stretch:normal;font-size:2.82222223px;line-height:1.25;font-family:sans-serif;-inkscape-font-specification:'sans-serif, Normal';font-variant-ligatures:normal;font-variant-caps:normal;font-variant-numeric:normal;font-feature-settings:normal;text-align:start;letter-spacing:0px;word-spacing:0px;writing-mode:lr-tb;text-anchor:start;fill:#000000;fill-opacity:1;stroke:none;stroke-width:0.26458332"
         xml:space="preserve"><tspan
           style="font-style:italic;stroke-width:0.26458332"
           y="24.195683"
           x="98.452721"
           id="tspan1292"
           sodipodi:role="line">pTAC14</tspan></text>
      <text
         xml:space="preserve"
         style="font-style:normal;font-variant:normal;font-weight:normal;font-stretch:normal;font-size:2.82222223px;line-height:1.25;font-family:sans-serif;-inkscape-font-specification:'sans-serif, Normal';font-variant-ligatures:normal;font-variant-caps:normal;font-variant-numeric:normal;font-feature-settings:normal;text-align:start;letter-spacing:0px;word-spacing:0px;writing-mode:lr-tb;text-anchor:start;fill:#000000;fill-opacity:1;stroke:none;stroke-width:0.26458332"
         x="82.096413"
         y="16.352678"
         id="text2131"><tspan
           sodipodi:role="line"
           id="tspan2129"
           x="82.096413"
           y="16.352678"
           style="font-size:3.52777767px;stroke-width:0.26458332">Population ancestrale de <tspan
   style="font-style:italic;font-size:3.52777767px"
   id="tspan2144">Mimulus</tspan></tspan></text>
    </g>
    <path
       style="fill:none;stroke:#000000;stroke-width:0.5;stroke-linecap:butt;stroke-linejoin:miter;stroke-miterlimit:4;stroke-dasharray:none;stroke-opacity:1;marker-end:url(#Arrow1Mend)"
       d="M 105.83333,39.220237 65.200892,70.592261"
       id="path1353"
       inkscape:connector-curvature="0" />
    <path
       style="fill:none;stroke:#000000;stroke-width:0.5;stroke-linecap:butt;stroke-linejoin:miter;stroke-miterlimit:4;stroke-dasharray:none;stroke-opacity:1;marker-end:url(#Arrow1Mend-3)"
       d="m 105.83333,39.220237 40.63244,31.372024"
       id="path1353-0"
       inkscape:connector-curvature="0" />
    <g
       id="g2083"
       transform="translate(-14.741071,3.96875)">
      <g
         id="layer1-0-8-0"
         inkscape:label="Layer 1"
         transform="matrix(0.07086845,0,0,0.07086845,135.7798,57.900261)">
        <path
           id="path2985-0-7"
           sodipodi:nodetypes="cccccccc"
           style="color:#000000;fill:#009e73"
           inkscape:connector-curvature="0"
           d="m 148.82,377.24 5.11,-55.86 c 0,0 -96.743,-5.72 -126.59,-86.31 100.28,-46.69 132.07,73.2 132.07,73.2 0,0 22.52,-129.75 120.17,-126.76 6.4,127.92 -114.13,139.44 -114.13,139.44 l 4.69,56.72 z" />
        <path
           id="path2983-4-6"
           sodipodi:nodetypes="ccsc"
           style="color:#000000;fill:#6d3c32"
           inkscape:connector-curvature="0"
           d="m 66.946,369.13 190.16,6.81 c 0,0 4.69,97.92 -95.93,93.82 C 52.436,465.33 66.942,369.13 66.942,369.13 Z" />
        <path
           id="path2989-1-3"
           style="color:#000000;fill:#008000"
           d="m 159.8,158.57 -5.02,-5.71 -48.52,-30.45 53.71,37.49 63.2,-68.822 -59.33,61.092 z"
           sodipodi:nodetypes="ccccccc"
           inkscape:connector-curvature="0"
           transform="translate(0,160)" />
        <path
           id="path3010-13-7"
           style="color:#000000;fill:#4d1a06"
           d="m 88.692,209.56 c 0,0 -10.665,70.36 72.068,80.16 72.91,5.12 75.04,-73.76 75.04,-73.76 l 21.32,1.28 c 0,0 4.27,98.93 -97.65,92.53 C 52.87,305.93 66.519,208.71 66.519,208.71 Z"
           sodipodi:nodetypes="ccccccc"
           inkscape:connector-curvature="0"
           transform="translate(0,160)" />
      </g>
      <rect
         y="79.516624"
         x="157.66162"
         height="2.9399648"
         width="30.335091"
         id="rect1232-5-6"
         style="opacity:1;fill:#56b4e9;fill-opacity:1;fill-rule:nonzero;stroke:none;stroke-width:0.26499999;stroke-linecap:round;stroke-miterlimit:4;stroke-dasharray:none;stroke-dashoffset:0;stroke-opacity:1" />
      <rect
         y="79.516624"
         x="193.14165"
         height="2.9399648"
         width="30.335091"
         id="rect1232-1-9-1"
         style="opacity:1;fill:#e69f00;fill-opacity:1;fill-rule:nonzero;stroke:none;stroke-width:0.26499999;stroke-linecap:round;stroke-miterlimit:4;stroke-dasharray:none;stroke-dashoffset:0;stroke-opacity:1" />
      <rect
         y="79.516624"
         x="203.07481"
         height="2.9399648"
         width="1.4699824"
         id="rect1275-8-5-8"
         style="opacity:1;fill:#008000;fill-opacity:1;fill-rule:nonzero;stroke:none;stroke-width:0.25917509;stroke-linecap:round;stroke-miterlimit:4;stroke-dasharray:none;stroke-dashoffset:0;stroke-opacity:1" />
      <text
         id="text1294-6-1"
         y="77.990875"
         x="180.19821"
         style="font-style:normal;font-variant:normal;font-weight:normal;font-stretch:normal;font-size:2.82222223px;line-height:1.25;font-family:sans-serif;-inkscape-font-specification:'sans-serif, Normal';font-variant-ligatures:normal;font-variant-caps:normal;font-variant-numeric:normal;font-feature-settings:normal;text-align:start;letter-spacing:0px;word-spacing:0px;writing-mode:lr-tb;text-anchor:start;fill:#000000;fill-opacity:1;stroke:none;stroke-width:0.26458332"
         xml:space="preserve"><tspan
           style="font-style:normal;stroke-width:0.26458332"
           y="77.990875"
           x="180.19821"
           id="tspan1292-5-2"
           sodipodi:role="line">G1</tspan><tspan
           style="font-style:italic;stroke-width:0.26458332"
           y="81.518654"
           x="180.19821"
           sodipodi:role="line"
           id="tspan2307" /></text>
      <text
         id="text1294-6-9-2"
         y="77.990875"
         x="201.87987"
         style="font-style:normal;font-variant:normal;font-weight:normal;font-stretch:normal;font-size:2.82222223px;line-height:1.25;font-family:sans-serif;-inkscape-font-specification:'sans-serif, Normal';font-variant-ligatures:normal;font-variant-caps:normal;font-variant-numeric:normal;font-feature-settings:normal;text-align:start;letter-spacing:0px;word-spacing:0px;writing-mode:lr-tb;text-anchor:start;fill:#000000;fill-opacity:1;stroke:none;stroke-width:0.26458332"
         xml:space="preserve"><tspan
           style="font-style:normal;stroke-width:0.26458332"
           y="77.990875"
           x="201.87987"
           id="tspan1292-5-9-6"
           sodipodi:role="line">G2</tspan></text>
      <g
         aria-label="X"
         style="font-style:normal;font-variant:normal;font-weight:normal;font-stretch:normal;font-size:2.82222223px;line-height:1.25;font-family:sans-serif;-inkscape-font-specification:'sans-serif, Normal';font-variant-ligatures:normal;font-variant-caps:normal;font-variant-numeric:normal;font-feature-settings:normal;text-align:start;letter-spacing:0px;word-spacing:0px;writing-mode:lr-tb;text-anchor:start;fill:#000000;fill-opacity:1;stroke:none;stroke-width:0.26458332"
         id="text2135">
        <g
           id="g2312">
          <rect
             style="opacity:1;fill:#ff0000;fill-opacity:1;fill-rule:nonzero;stroke:none;stroke-width:0.25917509;stroke-linecap:round;stroke-miterlimit:4;stroke-dasharray:none;stroke-dashoffset:0;stroke-opacity:1"
             id="rect1275-3-0"
             width="1.4699824"
             height="2.9399648"
             x="181.40562"
             y="79.516624" />
          <path
             sodipodi:nodetypes="ccccccccccccc"
             inkscape:connector-curvature="0"
             id="path2137"
             style="stroke-width:0.28874204"
             d="m 181.40413,79.516624 h 0.24922 l 0.4958,1.092887 0.47564,-1.092887 h 0.24922 l -0.58992,1.391215 0.59014,1.54875 H 182.625 l -0.47585,-1.250422 -0.49443,1.250422 h -0.25038 l 0.61215,-1.54875 z" />
        </g>
      </g>
    </g>
    <text
       xml:space="preserve"
       style="font-style:normal;font-variant:normal;font-weight:normal;font-stretch:normal;font-size:2.82222223px;line-height:1.25;font-family:sans-serif;-inkscape-font-specification:'sans-serif, Normal';font-variant-ligatures:normal;font-variant-caps:normal;font-variant-numeric:normal;font-feature-settings:normal;text-align:start;letter-spacing:0px;word-spacing:0px;writing-mode:lr-tb;text-anchor:start;fill:#000000;fill-opacity:1;stroke:none;stroke-width:0.26458332"
       x="24.447626"
       y="94.43502"
       id="text2142"
       transform="rotate(-38.081966)"><tspan
         sodipodi:role="line"
         id="tspan2140"
         x="24.447626"
         y="94.43502"
         style="font-style:italic;stroke-width:0.26458332">M. nasutus</tspan></text>
    <text
       xml:space="preserve"
       style="font-style:normal;font-variant:normal;font-weight:normal;font-stretch:normal;font-size:2.82222223px;line-height:1.25;font-family:sans-serif;-inkscape-font-specification:'sans-serif, Normal';font-variant-ligatures:normal;font-variant-caps:normal;font-variant-numeric:normal;font-feature-settings:normal;text-align:start;letter-spacing:0px;word-spacing:0px;writing-mode:lr-tb;text-anchor:start;fill:#000000;fill-opacity:1;stroke:none;stroke-width:0.26458332"
       x="126.42472"
       y="-36.812389"
       id="text2166"
       transform="rotate(38.389705)"><tspan
         sodipodi:role="line"
         id="tspan2164"
         x="126.42472"
         y="-36.812389"
         style="font-style:italic;stroke-width:0.26458332">M. guttatus</tspan></text>
    <g
       id="g2297">
      <g
         id="layer1-0-47"
         inkscape:label="Layer 1"
         transform="matrix(0.07086845,0,0,0.07086845,9.1577492,61.869011)">
        <path
           id="path2985-6"
           sodipodi:nodetypes="cccccccc"
           style="color:#000000;fill:#009e73"
           inkscape:connector-curvature="0"
           d="m 148.82,377.24 5.11,-55.86 c 0,0 -96.743,-5.72 -126.59,-86.31 100.28,-46.69 132.07,73.2 132.07,73.2 0,0 22.52,-129.75 120.17,-126.76 6.4,127.92 -114.13,139.44 -114.13,139.44 l 4.69,56.72 z" />
        <path
           id="path2983-5"
           sodipodi:nodetypes="ccsc"
           style="color:#000000;fill:#6d3c32"
           inkscape:connector-curvature="0"
           d="m 66.946,369.13 190.16,6.81 c 0,0 4.69,97.92 -95.93,93.82 C 52.436,465.33 66.942,369.13 66.942,369.13 Z" />
        <path
           id="path2989-7"
           style="color:#000000;fill:#008000"
           d="m 159.8,158.57 -5.02,-5.71 -48.52,-30.45 53.71,37.49 63.2,-68.822 -59.33,61.092 z"
           sodipodi:nodetypes="ccccccc"
           inkscape:connector-curvature="0"
           transform="translate(0,160)" />
        <path
           id="path3010-1"
           style="color:#000000;fill:#4d1a06"
           d="m 88.692,209.56 c 0,0 -10.665,70.36 72.068,80.16 72.91,5.12 75.04,-73.76 75.04,-73.76 l 21.32,1.28 c 0,0 4.27,98.93 -97.65,92.53 C 52.87,305.93 66.519,208.71 66.519,208.71 Z"
           sodipodi:nodetypes="ccccccc"
           inkscape:connector-curvature="0"
           transform="translate(0,160)" />
      </g>
      <rect
         y="83.485382"
         x="31.039589"
         height="2.9399648"
         width="30.335091"
         id="rect1232-3"
         style="opacity:1;fill:#56b4e9;fill-opacity:1;fill-rule:nonzero;stroke:none;stroke-width:0.26499999;stroke-linecap:round;stroke-miterlimit:4;stroke-dasharray:none;stroke-dashoffset:0;stroke-opacity:1" />
      <rect
         y="83.485382"
         x="66.519615"
         height="2.9399648"
         width="30.335091"
         id="rect1232-1-3"
         style="opacity:1;fill:#e69f00;fill-opacity:1;fill-rule:nonzero;stroke:none;stroke-width:0.26499999;stroke-linecap:round;stroke-miterlimit:4;stroke-dasharray:none;stroke-dashoffset:0;stroke-opacity:1" />
      <rect
         y="83.485382"
         x="54.783596"
         height="2.9399648"
         width="1.4699824"
         id="rect1275-0"
         style="opacity:1;fill:#008000;fill-opacity:1;fill-rule:nonzero;stroke:none;stroke-width:0.25917509;stroke-linecap:round;stroke-miterlimit:4;stroke-dasharray:none;stroke-dashoffset:0;stroke-opacity:1" />
      <text
         id="text2284"
         y="82.309517"
         x="53.55695"
         style="font-style:normal;font-variant:normal;font-weight:normal;font-stretch:normal;font-size:2.82222223px;line-height:1.25;font-family:sans-serif;-inkscape-font-specification:'sans-serif, Normal';font-variant-ligatures:normal;font-variant-caps:normal;font-variant-numeric:normal;font-feature-settings:normal;text-align:start;letter-spacing:0px;word-spacing:0px;writing-mode:lr-tb;text-anchor:start;fill:#000000;fill-opacity:1;stroke:none;stroke-width:0.26458332"
         xml:space="preserve"><tspan
           style="stroke-width:0.26458332"
           y="82.309517"
           x="53.55695"
           id="tspan2282"
           sodipodi:role="line">N1</tspan></text>
    </g>
    <g
       id="g2622">
      <g
         id="layer1-0-8"
         inkscape:label="Layer 1"
         transform="matrix(0.07086845,0,0,0.07086845,142.81015,25.016332)">
        <path
           id="path2985-0"
           sodipodi:nodetypes="cccccccc"
           style="color:#000000;fill:#009e73"
           inkscape:connector-curvature="0"
           d="m 148.82,377.24 5.11,-55.86 c 0,0 -96.743,-5.72 -126.59,-86.31 100.28,-46.69 132.07,73.2 132.07,73.2 0,0 22.52,-129.75 120.17,-126.76 6.4,127.92 -114.13,139.44 -114.13,139.44 l 4.69,56.72 z" />
        <path
           id="path2983-4"
           sodipodi:nodetypes="ccsc"
           style="color:#000000;fill:#6d3c32"
           inkscape:connector-curvature="0"
           d="m 66.946,369.13 190.16,6.81 c 0,0 4.69,97.92 -95.93,93.82 C 52.436,465.33 66.942,369.13 66.942,369.13 Z" />
        <path
           id="path2989-1"
           style="color:#000000;fill:#008000"
           d="m 159.8,158.57 -5.02,-5.71 -48.52,-30.45 53.71,37.49 63.2,-68.822 -59.33,61.092 z"
           sodipodi:nodetypes="ccccccc"
           inkscape:connector-curvature="0"
           transform="translate(0,160)" />
        <path
           id="path3010-13"
           style="color:#000000;fill:#4d1a06"
           d="m 88.692,209.56 c 0,0 -10.665,70.36 72.068,80.16 72.91,5.12 75.04,-73.76 75.04,-73.76 l 21.32,1.28 c 0,0 4.27,98.93 -97.65,92.53 C 52.87,305.93 66.519,208.71 66.519,208.71 Z"
           sodipodi:nodetypes="ccccccc"
           inkscape:connector-curvature="0"
           transform="translate(0,160)" />
      </g>
      <rect
         y="46.632694"
         x="164.69199"
         height="2.9399648"
         width="30.335091"
         id="rect1232-5"
         style="opacity:1;fill:#56b4e9;fill-opacity:1;fill-rule:nonzero;stroke:none;stroke-width:0.26499999;stroke-linecap:round;stroke-miterlimit:4;stroke-dasharray:none;stroke-dashoffset:0;stroke-opacity:1" />
      <rect
         y="46.632694"
         x="200.17201"
         height="2.9399648"
         width="30.335091"
         id="rect1232-1-9"
         style="opacity:1;fill:#e69f00;fill-opacity:1;fill-rule:nonzero;stroke:none;stroke-width:0.26499999;stroke-linecap:round;stroke-miterlimit:4;stroke-dasharray:none;stroke-dashoffset:0;stroke-opacity:1" />
      <rect
         y="46.632694"
         x="188.43599"
         height="2.9399648"
         width="1.4699824"
         id="rect1275-3"
         style="opacity:1;fill:#008000;fill-opacity:1;fill-rule:nonzero;stroke:none;stroke-width:0.25917509;stroke-linecap:round;stroke-miterlimit:4;stroke-dasharray:none;stroke-dashoffset:0;stroke-opacity:1" />
      <rect
         y="46.632694"
         x="210.10518"
         height="2.9399648"
         width="1.4699824"
         id="rect1275-8-5"
         style="opacity:1;fill:#008000;fill-opacity:1;fill-rule:nonzero;stroke:none;stroke-width:0.25917509;stroke-linecap:round;stroke-miterlimit:4;stroke-dasharray:none;stroke-dashoffset:0;stroke-opacity:1" />
      <path
         sodipodi:nodetypes="cc"
         inkscape:connector-curvature="0"
         id="path2168"
         d="m 189.59285,45.513545 c 3.96875,-6.992561 16.1555,-6.845492 20.5997,0"
         style="fill:none;stroke:#000000;stroke-width:0.26458332px;stroke-linecap:butt;stroke-linejoin:miter;stroke-opacity:1;marker-end:url(#marker2178)" />
      <g
         transform="translate(-1.6102318,4.2333335)"
         id="g2264">
        <text
           xml:space="preserve"
           style="font-style:normal;font-variant:normal;font-weight:normal;font-stretch:normal;font-size:2.82222223px;line-height:1.25;font-family:sans-serif;-inkscape-font-specification:'sans-serif, Normal';font-variant-ligatures:normal;font-variant-caps:normal;font-variant-numeric:normal;font-feature-settings:normal;text-align:start;letter-spacing:0px;word-spacing:0px;writing-mode:lr-tb;text-anchor:start;fill:#000000;fill-opacity:1;stroke:none;stroke-width:0.26458332"
           x="192.45917"
           y="34.684525"
           id="text2218"><tspan
             sodipodi:role="line"
             id="tspan2216"
             x="192.45917"
             y="34.684525"
             style="font-weight:bold;stroke-width:0.26458332">Duplication</tspan></text>
      </g>
    </g>
    <g
       id="g2728"
       transform="translate(0.00477676,22.225006)">
      <g
         id="layer1-0-4"
         inkscape:label="Layer 1"
         transform="matrix(0.07086845,0,0,0.07086845,60.024141,97.389315)">
        <path
           id="path2985-5"
           sodipodi:nodetypes="cccccccc"
           style="color:#000000;fill:#f9f9f9;stroke:#000000;stroke-opacity:1"
           inkscape:connector-curvature="0"
           d="m 148.82,377.24 5.11,-55.86 c 0,0 -96.743,-5.72 -126.59,-86.31 100.28,-46.69 132.07,73.2 132.07,73.2 0,0 22.52,-129.75 120.17,-126.76 6.4,127.92 -114.13,139.44 -114.13,139.44 l 4.69,56.72 z" />
        <path
           id="path2983-2"
           sodipodi:nodetypes="ccsc"
           style="color:#000000;fill:#6d3c32"
           inkscape:connector-curvature="0"
           d="m 66.946,369.13 190.16,6.81 c 0,0 4.69,97.92 -95.93,93.82 C 52.436,465.33 66.942,369.13 66.942,369.13 Z" />
        <path
           id="path2989-0"
           style="color:#000000;fill:#cccccc"
           d="m 159.8,158.57 -5.02,-5.71 -48.52,-30.45 53.71,37.49 63.2,-68.822 -59.33,61.092 z"
           sodipodi:nodetypes="ccccccc"
           inkscape:connector-curvature="0"
           transform="translate(0,160)" />
        <path
           id="path3010-2"
           style="color:#000000;fill:#4d1a06"
           d="m 88.692,209.56 c 0,0 -10.665,70.36 72.068,80.16 72.91,5.12 75.04,-73.76 75.04,-73.76 l 21.32,1.28 c 0,0 4.27,98.93 -97.65,92.53 C 52.87,305.93 66.519,208.71 66.519,208.71 Z"
           sodipodi:nodetypes="ccccccc"
           inkscape:connector-curvature="0"
           transform="translate(0,160)" />
      </g>
      <rect
         style="opacity:1;fill:#56b4e9;fill-opacity:1;fill-rule:nonzero;stroke:none;stroke-width:0.26499999;stroke-linecap:round;stroke-miterlimit:4;stroke-dasharray:none;stroke-dashoffset:0;stroke-opacity:1"
         id="rect1232-5-6-2"
         width="30.335091"
         height="2.9399648"
         x="83.924889"
         y="121.80807" />
      <rect
         style="opacity:1;fill:#e69f00;fill-opacity:1;fill-rule:nonzero;stroke:none;stroke-width:0.26499999;stroke-linecap:round;stroke-miterlimit:4;stroke-dasharray:none;stroke-dashoffset:0;stroke-opacity:1"
         id="rect1232-1-9-1-8"
         width="30.335091"
         height="2.9399648"
         x="119.40491"
         y="121.80807" />
      <g
         id="text2135-4"
         style="font-style:normal;font-variant:normal;font-weight:normal;font-stretch:normal;font-size:2.82222223px;line-height:1.25;font-family:sans-serif;-inkscape-font-specification:'sans-serif, Normal';font-variant-ligatures:normal;font-variant-caps:normal;font-variant-numeric:normal;font-feature-settings:normal;text-align:start;letter-spacing:0px;word-spacing:0px;writing-mode:lr-tb;text-anchor:start;fill:#000000;fill-opacity:1;stroke:none;stroke-width:0.26458332"
         aria-label="X"
         transform="translate(-73.736732,42.291431)">
        <g
           id="g2312-9">
          <rect
             y="79.516624"
             x="181.40562"
             height="2.9399648"
             width="1.4699824"
             id="rect1275-3-0-2"
             style="opacity:1;fill:#ff0000;fill-opacity:1;fill-rule:nonzero;stroke:none;stroke-width:0.25917509;stroke-linecap:round;stroke-miterlimit:4;stroke-dasharray:none;stroke-dashoffset:0;stroke-opacity:1" />
          <path
             d="m 181.40413,79.516624 h 0.24922 l 0.4958,1.092887 0.47564,-1.092887 h 0.24922 l -0.58992,1.391215 0.59014,1.54875 H 182.625 l -0.47585,-1.250422 -0.49443,1.250422 h -0.25038 l 0.61215,-1.54875 z"
             style="stroke-width:0.28874204"
             id="path2137-7"
             inkscape:connector-curvature="0"
             sodipodi:nodetypes="ccccccccccccc" />
        </g>
      </g>
      <rect
         style="opacity:1;fill:#56b4e9;fill-opacity:1;fill-rule:nonzero;stroke:none;stroke-width:0.26499999;stroke-linecap:round;stroke-miterlimit:4;stroke-dasharray:none;stroke-dashoffset:0;stroke-opacity:1"
         id="rect1232-5-6-4"
         width="30.335091"
         height="2.9399648"
         x="83.924889"
         y="126.41946" />
      <rect
         style="opacity:1;fill:#e69f00;fill-opacity:1;fill-rule:nonzero;stroke:none;stroke-width:0.26499999;stroke-linecap:round;stroke-miterlimit:4;stroke-dasharray:none;stroke-dashoffset:0;stroke-opacity:1"
         id="rect1232-1-9-1-2"
         width="30.335091"
         height="2.9399648"
         x="119.40491"
         y="126.41946" />
      <g
         id="text2135-6"
         style="font-style:normal;font-variant:normal;font-weight:normal;font-stretch:normal;font-size:2.82222223px;line-height:1.25;font-family:sans-serif;-inkscape-font-specification:'sans-serif, Normal';font-variant-ligatures:normal;font-variant-caps:normal;font-variant-numeric:normal;font-feature-settings:normal;text-align:start;letter-spacing:0px;word-spacing:0px;writing-mode:lr-tb;text-anchor:start;fill:#000000;fill-opacity:1;stroke:none;stroke-width:0.26458332"
         aria-label="X"
         transform="translate(-73.736732,46.902738)">
        <g
           id="g2312-0">
          <rect
             y="79.516624"
             x="181.40562"
             height="2.9399648"
             width="1.4699824"
             id="rect1275-3-0-8"
             style="opacity:1;fill:#ff0000;fill-opacity:1;fill-rule:nonzero;stroke:none;stroke-width:0.25917509;stroke-linecap:round;stroke-miterlimit:4;stroke-dasharray:none;stroke-dashoffset:0;stroke-opacity:1" />
          <path
             d="m 181.40413,79.516624 h 0.24922 l 0.4958,1.092887 0.47564,-1.092887 h 0.24922 l -0.58992,1.391215 0.59014,1.54875 H 182.625 l -0.47585,-1.250422 -0.49443,1.250422 h -0.25038 l 0.61215,-1.54875 z"
             style="stroke-width:0.28874204"
             id="path2137-9"
             inkscape:connector-curvature="0"
             sodipodi:nodetypes="ccccccccccccc" />
        </g>
      </g>
      <text
         id="text2702"
         y="113.49255"
         x="117.58445"
         style="font-style:normal;font-variant:normal;font-weight:normal;font-stretch:normal;font-size:2.82222223px;line-height:1.25;font-family:sans-serif;-inkscape-font-specification:'sans-serif, Normal';font-variant-ligatures:normal;font-variant-caps:normal;font-variant-numeric:normal;font-feature-settings:normal;text-align:start;letter-spacing:0px;word-spacing:0px;writing-mode:lr-tb;text-anchor:start;fill:#000000;fill-opacity:1;stroke:none;stroke-width:0.26458332"
         xml:space="preserve"><tspan
           style="font-size:3.52777767px;text-align:center;text-anchor:middle;stroke-width:0.26458332"
           y="113.49255"
           x="117.58445"
           id="tspan2700"
           sodipodi:role="line">1/16 des hybrides F2</tspan><tspan
           id="tspan2706"
           style="font-size:3.52777767px;text-align:center;text-anchor:middle;stroke-width:0.26458332"
           y="117.90228"
           x="117.58445"
           sodipodi:role="line">ont un phénotype léthal</tspan></text>
    </g>
    <text
       xml:space="preserve"
       style="font-style:normal;font-variant:normal;font-weight:normal;font-stretch:normal;font-size:2.82222223px;line-height:1.25;font-family:sans-serif;-inkscape-font-specification:'sans-serif, Normal';font-variant-ligatures:normal;font-variant-caps:normal;font-variant-numeric:normal;font-feature-settings:normal;text-align:start;letter-spacing:0px;word-spacing:0px;writing-mode:lr-tb;text-anchor:start;fill:#000000;fill-opacity:1;stroke:none;stroke-width:0.26458332"
       x="147.48633"
       y="78.340767"
       id="text2280"><tspan
         sodipodi:role="line"
         id="tspan2278"
         x="147.48633"
         y="78.340767"
         style="font-weight:bold;stroke-width:0.26458332">Perte de fonction</tspan></text>
    <g
       id="g2738"
       transform="matrix(0.62231492,0,0,0.62231492,41.453239,37.727859)">
      <path
         sodipodi:nodetypes="cc"
         inkscape:connector-curvature="0"
         id="path2732"
         d="M 98.651784,96.294643 110.65253,110.37426"
         style="fill:none;stroke:#000000;stroke-width:1;stroke-linecap:round;stroke-linejoin:miter;stroke-miterlimit:4;stroke-dasharray:none;stroke-opacity:1" />
      <path
         sodipodi:nodetypes="cc"
         inkscape:connector-curvature="0"
         id="path2734"
         d="M 110.65253,96.294643 98.651784,110.37426"
         style="fill:none;stroke:#000000;stroke-width:1;stroke-linecap:round;stroke-linejoin:miter;stroke-miterlimit:4;stroke-dasharray:none;stroke-opacity:1" />
    </g>
    <text
       xml:space="preserve"
       style="font-style:normal;font-variant:normal;font-weight:normal;font-stretch:normal;font-size:2.82222223px;line-height:1.25;font-family:sans-serif;-inkscape-font-specification:'sans-serif, Normal';font-variant-ligatures:normal;font-variant-caps:normal;font-variant-numeric:normal;font-feature-settings:normal;text-align:start;letter-spacing:0px;word-spacing:0px;writing-mode:lr-tb;text-anchor:start;fill:#000000;fill-opacity:1;stroke:none;stroke-width:0.26458332"
       x="109.95325"
       y="102.72024"
       id="text2742"><tspan
         sodipodi:role="line"
         id="tspan2740"
         x="109.95325"
         y="102.72024"
         style="stroke-width:0.26458332">Croisement</tspan></text>
    <g
       transform="translate(50.826593,26.347141)"
       id="g2297-6">
      <g
         id="layer1-0-47-0"
         inkscape:label="Layer 1"
         transform="matrix(0.07086845,0,0,0.07086845,9.1577492,61.869011)">
        <path
           id="path2985-6-4"
           sodipodi:nodetypes="cccccccc"
           style="color:#000000;fill:#009e73"
           inkscape:connector-curvature="0"
           d="m 148.82,377.24 5.11,-55.86 c 0,0 -96.743,-5.72 -126.59,-86.31 100.28,-46.69 132.07,73.2 132.07,73.2 0,0 22.52,-129.75 120.17,-126.76 6.4,127.92 -114.13,139.44 -114.13,139.44 l 4.69,56.72 z" />
        <path
           id="path2983-5-8"
           sodipodi:nodetypes="ccsc"
           style="color:#000000;fill:#6d3c32"
           inkscape:connector-curvature="0"
           d="m 66.946,369.13 190.16,6.81 c 0,0 4.69,97.92 -95.93,93.82 C 52.436,465.33 66.942,369.13 66.942,369.13 Z" />
        <path
           id="path2989-7-8"
           style="color:#000000;fill:#008000"
           d="m 159.8,158.57 -5.02,-5.71 -48.52,-30.45 53.71,37.49 63.2,-68.822 -59.33,61.092 z"
           sodipodi:nodetypes="ccccccc"
           inkscape:connector-curvature="0"
           transform="translate(0,160)" />
        <path
           id="path3010-1-8"
           style="color:#000000;fill:#4d1a06"
           d="m 88.692,209.56 c 0,0 -10.665,70.36 72.068,80.16 72.91,5.12 75.04,-73.76 75.04,-73.76 l 21.32,1.28 c 0,0 4.27,98.93 -97.65,92.53 C 52.87,305.93 66.519,208.71 66.519,208.71 Z"
           sodipodi:nodetypes="ccccccc"
           inkscape:connector-curvature="0"
           transform="translate(0,160)" />
      </g>
      <rect
         y="83.485382"
         x="33.156258"
         height="2.9399648"
         width="30.335091"
         id="rect1232-3-9"
         style="opacity:1;fill:#56b4e9;fill-opacity:1;fill-rule:nonzero;stroke:none;stroke-width:0.26499999;stroke-linecap:round;stroke-miterlimit:4;stroke-dasharray:none;stroke-dashoffset:0;stroke-opacity:1" />
      <rect
         y="83.485382"
         x="68.636284"
         height="2.9399648"
         width="30.335091"
         id="rect1232-1-3-7"
         style="opacity:1;fill:#e69f00;fill-opacity:1;fill-rule:nonzero;stroke:none;stroke-width:0.26499999;stroke-linecap:round;stroke-miterlimit:4;stroke-dasharray:none;stroke-dashoffset:0;stroke-opacity:1" />
      <rect
         y="83.485382"
         x="56.810165"
         height="2.9399648"
         width="1.4699824"
         id="rect1275-0-7"
         style="opacity:1;fill:#008000;fill-opacity:1;fill-rule:nonzero;stroke:none;stroke-width:0.25917509;stroke-linecap:round;stroke-miterlimit:4;stroke-dasharray:none;stroke-dashoffset:0;stroke-opacity:1" />
      <rect
         y="88.201843"
         x="33.066898"
         height="2.9399648"
         width="30.335091"
         id="rect1232-5-6-3"
         style="opacity:1;fill:#56b4e9;fill-opacity:1;fill-rule:nonzero;stroke:none;stroke-width:0.26499999;stroke-linecap:round;stroke-miterlimit:4;stroke-dasharray:none;stroke-dashoffset:0;stroke-opacity:1" />
      <rect
         y="88.201843"
         x="68.546921"
         height="2.9399648"
         width="30.335091"
         id="rect1232-1-9-1-83"
         style="opacity:1;fill:#e69f00;fill-opacity:1;fill-rule:nonzero;stroke:none;stroke-width:0.26499999;stroke-linecap:round;stroke-miterlimit:4;stroke-dasharray:none;stroke-dashoffset:0;stroke-opacity:1" />
      <rect
         y="88.201843"
         x="78.480087"
         height="2.9399648"
         width="1.4699824"
         id="rect1275-8-5-8-3"
         style="opacity:1;fill:#008000;fill-opacity:1;fill-rule:nonzero;stroke:none;stroke-width:0.25917509;stroke-linecap:round;stroke-miterlimit:4;stroke-dasharray:none;stroke-dashoffset:0;stroke-opacity:1" />
      <g
         transform="translate(-124.59471,8.6852106)"
         aria-label="X"
         style="font-style:normal;font-variant:normal;font-weight:normal;font-stretch:normal;font-size:2.82222223px;line-height:1.25;font-family:sans-serif;-inkscape-font-specification:'sans-serif, Normal';font-variant-ligatures:normal;font-variant-caps:normal;font-variant-numeric:normal;font-feature-settings:normal;text-align:start;letter-spacing:0px;word-spacing:0px;writing-mode:lr-tb;text-anchor:start;fill:#000000;fill-opacity:1;stroke:none;stroke-width:0.26458332"
         id="text2135-68">
        <g
           id="g2312-90">
          <rect
             style="opacity:1;fill:#ff0000;fill-opacity:1;fill-rule:nonzero;stroke:none;stroke-width:0.25917509;stroke-linecap:round;stroke-miterlimit:4;stroke-dasharray:none;stroke-dashoffset:0;stroke-opacity:1"
             id="rect1275-3-0-6"
             width="1.4699824"
             height="2.9399648"
             x="181.40562"
             y="79.516624" />
          <path
             sodipodi:nodetypes="ccccccccccccc"
             inkscape:connector-curvature="0"
             id="path2137-8"
             style="stroke-width:0.28874204"
             d="m 181.40413,79.516624 h 0.24922 l 0.4958,1.092887 0.47564,-1.092887 h 0.24922 l -0.58992,1.391215 0.59014,1.54875 H 182.625 l -0.47585,-1.250422 -0.49443,1.250422 h -0.25038 l 0.61215,-1.54875 z" />
        </g>
      </g>
    </g>
    <text
       xml:space="preserve"
       style="font-style:normal;font-variant:normal;font-weight:normal;font-stretch:normal;font-size:2.82222223px;line-height:1.25;font-family:sans-serif;-inkscape-font-specification:'sans-serif, Normal';font-variant-ligatures:normal;font-variant-caps:normal;font-variant-numeric:normal;font-feature-settings:normal;text-align:start;letter-spacing:0px;word-spacing:0px;writing-mode:lr-tb;text-anchor:start;fill:#000000;fill-opacity:1;stroke:none;stroke-width:0.26458332"
       x="152.39009"
       y="114.54362"
       id="text2131-0"><tspan
         sodipodi:role="line"
         id="tspan2129-3"
         x="152.39009"
         y="114.54362"
         style="font-size:3.52777767px;stroke-width:0.26458332">F1 viables</tspan></text>
    <g
       id="g2738-3"
       transform="matrix(0.62231492,0,0,0.62231492,41.453239,61.170037)">
      <path
         sodipodi:nodetypes="cc"
         inkscape:connector-curvature="0"
         id="path2732-7"
         d="M 98.651784,96.294643 110.65253,110.37426"
         style="fill:none;stroke:#000000;stroke-width:1;stroke-linecap:round;stroke-linejoin:miter;stroke-miterlimit:4;stroke-dasharray:none;stroke-opacity:1" />
      <path
         sodipodi:nodetypes="cc"
         inkscape:connector-curvature="0"
         id="path2734-3"
         d="M 110.65253,96.294643 98.651784,110.37426"
         style="fill:none;stroke:#000000;stroke-width:1;stroke-linecap:round;stroke-linejoin:miter;stroke-miterlimit:4;stroke-dasharray:none;stroke-opacity:1" />
    </g>
  </g>
</svg>
